{
    "name": "Station",
    "fields": [
        {
            "fieldName": "name",
            "fieldType": "String"
        }
    ],
    "relationships": [
        {
            "relationshipType": "one-to-many",
            "relationshipName": "timeTable",
            "otherEntityName": "timeTable",
            "otherEntityRelationshipName": "station"
        }
    ],
    "changelogDate": "20181022155200",
    "entityTableName": "station",
    "dto": "no",
    "pagination": "no",
    "service": "no",
    "jpaMetamodelFiltering": false,
    "fluentMethods": true,
    "clientRootFolder": "",
    "applications": "*"
}